Nasa Meta Data
…
Lastly, we will want to build a tidy data frame for the keywords. For this one, we need to use unnest() from tidyr, because they are in a list-column.

nasa_keyword <- data_frame(id = metadata$dataset$identifier,
                          keyword = metadata$dataset$keyword) %>%
  unnest(keyword)

nasa_keyword

## # A tibble: 56,147 x 2
##    id                                        keyword                      
##    <chr>                                     <chr>                        
##  1 https://data.nasa.gov/api/views/f7qz-8dsr tomography                   
##  2 https://data.nasa.gov/api/views/f7qz-8dsr microct                      
##  3 TECHPORT_94241                            ames research center         
##  4 TECHPORT_94241                            completed                    
##  5 TECHPORT_93206                            federal aviation administrat
##  6 TECHPORT_93206                            active                       
##  7 TECHPORT_89174                            active                       
##  8 TECHPORT_94311                            arizona state university     
##  9 TECHPORT_94311                            active                       
## 10 TECHPORT_71919                            active                       
## # ... with 56,137 more rows
…
## Joining, by = "word"

nasa_description <- nasa_description %>%
  unnest_tokens(word, desc) %>%
  anti_join(stop_words)

## Joining, by = "word"

Now they are in a tidy text format with one token (word) per row:

nasa_title

## # A tibble: 132,989 x 2
##    id                                        word      
##    <chr>                                     <chr>     
##  1 https://data.nasa.gov/api/views/f7qz-8dsr ray       
##  2 https://data.nasa.gov/api/views/f7qz-8dsr micro     
##  3 https://data.nasa.gov/api/views/f7qz-8dsr tomography
##  4 https://data.nasa.gov/api/views/f7qz-8dsr micro     
##  5 https://data.nasa.gov/api/views/f7qz-8dsr ct        
##  6 TECHPORT_94241                            air       
##  7 TECHPORT_94241                            traffic   
##  8 TECHPORT_94241                            management
##  9 TECHPORT_94241                            atm       
## 10 TECHPORT_94241                            technology
## # ... with 132,979 more rows

nasa_description

## # A tibble: 1,639,649 x 2
##    id                                        word       
##    <chr>                                     <chr>      
##  1 https://data.nasa.gov/api/views/f7qz-8dsr ray        
##  2 https://data.nasa.gov/api/views/f7qz-8dsr micro      
##  3 https://data.nasa.gov/api/views/f7qz-8dsr tomography 
##  4 https://data.nasa.gov/api/views/f7qz-8dsr micro      
##  5 https://data.nasa.gov/api/views/f7qz-8dsr ct         
##  6 https://data.nasa.gov/api/views/f7qz-8dsr destructive
##  7 https://data.nasa.gov/api/views/f7qz-8dsr imaging    
##  8 https://data.nasa.gov/api/views/f7qz-8dsr technique  
##  9 https://data.nasa.gov/api/views/f7qz-8dsr resolution 
## 10 https://data.nasa.gov/api/views/f7qz-8dsr material   
## # ... with 1,639,639 more rows

Initial Analysis

Lets get a list of the most common words in the dataset titles using dplyr.

nasa_title %>%
  count(word, sort = TRUE)

## # A tibble: 11,499 x 2
##    word       n
##    <chr>  <int>
##  1 phase   8656
##  2 ii      2520
##  3 v1.0    1698
##  4 data    1663
##  5 system  1313
##  6 space   1011
##  7 based    795
##  8 low      645
##  9 2        632
## 10 mars     612
## # ... with 11,489 more rows

How about descriptions?

nasa_description %>%
  count(word, sort = TRUE)

## # A tibble: 45,229 x 2
##    word           n
##    <chr>      <int>
##  1 data       14225
##  2 system     13058
##  3 phase      11698
##  4 space       9004
##  5 design      7571
##  6 technology  7385
##  7 based       7118
##  8 nasa        7099
##  9 systems     7033
## 10 nbsp        6660
## # ... with 45,219 more rows
…
## Joining, by = "word"

nasa_description <- nasa_description %>%
  anti_join(my_stop_words)

## Joining, by = "word"

What are the most common keywords?

nasa_keyword %>%
  count(keyword, sort = TRUE)

## # A tibble: 6,781 x 2
##    keyword                          n
##    <chr>                        <int>
##  1 completed                     9021
##  2 active                        2885
##  3 goddard space flight center   1537
##  4 glenn research center         1535
##  5 langley research center       1390
##  6 jet propulsion laboratory     1317
##  7 ames research center          1226
##  8 johnson space center          1207
##  9 marshall space flight center   932
## 10 nasa                           651
## # ... with 6,771 more rows
…
Lets examine which words commonly occur together in the title,s descriptions, and keywords of NASA datasets. This may help us see which datasets are related to each other.

Networks of description and title words

We can use pairwise_count() from widyr package to count how many time each pair of words occur together in a title or description field.

library(widyr)

title_word_pairs <- nasa_title %>%
  widyr::pairwise_count(word, id, sort = TRUE, upper = FALSE) 

title_word_pairs

## # A tibble: 207,408 x 3
##    item1    item2       n
##    <chr>    <chr>   <dbl>
##  1 phase    system    948
##  2 space    phase     637
##  3 based    phase     601
##  4 phase    low       480
##  5 phase    power     441
##  6 systems  phase     421
##  7 phase    control   416
##  8 phase    sensor    403
##  9 advanced phase     362
## 10 orbiter  rosetta   361
## # ... with 207,398 more rows

These are pairs of words that occur together most often in title fields. We see a lot of phase in this top 10. Now lets do the same with descriptions:

desc_word_pairs <- nasa_description %>% 
  widyr::pairwise_count(word, id, sort = TRUE, upper = FALSE)

desc_word_pairs

## # A tibble: 18,523,060 x 3
##    item1      item2       n
##    <chr>      <chr>   <dbl>
##  1 system     phase    2430
##  2 systems    system   2367
##  3 system     develop  2276
##  4 based      system   2259
##  5 space      system   2172
##  6 technology system   2145
##  7 nasa       system   2114
##  8 design     system   2095
##  9 develop    phase    2087
## 10 nasa       phase    2073
## # ... with 18,523,050 more rows
…
